Problem Set 3
…
# SAMPLE FROM data.frame
pc_bs_sample <- function(G_b, pop_data){
  ## Create Random Index of N_i elemnts of pop_data
  index <- sample(pop_data$classid,
                  size = G_b,
                  replace = T)

  ## Select N_i elements from pop_data
  pop_data[pop_data$classid %in% index, c("pscore", "cs")]
}

pc_bs_sample(100, KruegerStar)

## # A tibble: 1,523 x 2
##    pscore    cs
##     <dbl> <dbl>
##  1  0.357    24
##  2  1.41     24
##  3  0.202    23
##  4  1.81     26
##  5  2.25     17
##  6  1.87     23
##  7  1.87     24
##  8  5.23     23
##  9  6.97     16
## 10  0.688    22
## # ... with 1,513 more rows
…
  ## Index of classes to sample
  index <- sample(full_data$classid,
                  size = G_b,
                  replace = T)

  ## Select G_b classes from full_data
  full_data[full_data$classid %in% index, c("cs", "u_hat", "weight")] %>%
    transmute(pscore = beta_0 + beta_1 * cs + u_hat*weight,
              cs = cs)
}

wild_bs_sample(data = KruegerStar)

## # A tibble: 5,743 x 2
##       pscore    cs
##        <dbl> <dbl>
##  1 -3.34e-11    15
##  2  1.02e+ 2    21
##  3  8.00e- 2    26
##  4  9.81e+ 1    24
##  5  1.07e+ 0    26
##  6  1.10e- 1    25
##  7  9.71e+ 1    24
##  8  9.45e+ 1    27
##  9  3.89e+ 0    26
## 10  2.02e- 1    23
## # ... with 5,733 more rows
…
